EESchema Schematic File Version 2
LIBS:power
LIBS:device
LIBS:switches
LIBS:relays
LIBS:motors
LIBS:transistors
LIBS:conn
LIBS:linear
LIBS:regul
LIBS:74xx
LIBS:cmos4000
LIBS:adc-dac
LIBS:memory
LIBS:xilinx
LIBS:microcontrollers
LIBS:dsp
LIBS:microchip
LIBS:analog_switches
LIBS:motorola
LIBS:texas
LIBS:intel
LIBS:audio
LIBS:interface
LIBS:digital-audio
LIBS:philips
LIBS:display
LIBS:cypress
LIBS:siliconi
LIBS:opto
LIBS:atmel
LIBS:contrib
LIBS:valves
LIBS:Regulator_Switching
LIBS:MCU_NXP_LPC
LIBS:PROYECTO-cache
EELAYER 25 0
EELAYER END
$Descr A4 11693 8268
encoding utf-8
Sheet 1 1
Title ""
Date ""
Rev ""
Comp ""
Comment1 ""
Comment2 ""
Comment3 ""
Comment4 ""
$EndDescr
$Comp
L LM2596T-5 U1
U 1 1 5A626A6F
P 5600 1300
F 0 "U1" H 5200 1550 50  0000 L CNN
F 1 "LM2596T-5" H 5600 1550 50  0000 L CNN
F 2 "TO_SOT_Packages_THT:TO-220-5_Vertical" H 5650 1050 50  0001 L CIN
F 3 "" H 5600 1300 50  0001 C CNN
	1    5600 1300
	1    0    0    -1  
$EndComp
$Comp
L D_Zener D1
U 1 1 5A626AB7
P 4300 1400
F 0 "D1" H 4300 1500 50  0000 C CNN
F 1 "1n4740 10v" H 4300 1300 50  0000 C CNN
F 2 "Diodes_THT:D_DO-41_SOD81_P10.16mm_Horizontal" H 4300 1400 50  0001 C CNN
F 3 "" H 4300 1400 50  0001 C CNN
	1    4300 1400
	0    1    1    0   
$EndComp
$Comp
L Conn_01x02_Female J1
U 1 1 5A626BCC
P 3000 1200
F 0 "J1" H 3000 1300 50  0000 C CNN
F 1 "Conn_01x02_Female" H 3000 1000 50  0000 C CNN
F 2 "Socket_Strips:Socket_Strip_Straight_1x02_Pitch2.54mm" H 3000 1200 50  0001 C CNN
F 3 "" H 3000 1200 50  0001 C CNN
	1    3000 1200
	-1   0    0    1   
$EndComp
$Comp
L CP C1
U 1 1 5A626CC5
P 4700 1400
F 0 "C1" H 4725 1500 50  0000 L CNN
F 1 "470uf" H 4725 1300 50  0000 L CNN
F 2 "Capacitors_THT:CP_Radial_D8.0mm_P3.50mm" H 4738 1250 50  0001 C CNN
F 3 "" H 4700 1400 50  0001 C CNN
	1    4700 1400
	1    0    0    -1  
$EndComp
$Comp
L L L1
U 1 1 5A626D44
P 6400 1400
F 0 "L1" V 6350 1400 50  0000 C CNN
F 1 "33uh" V 6475 1400 50  0000 C CNN
F 2 "Inductors_THT:L_Axial_L5.3mm_D2.2mm_P10.16mm_Horizontal_Vishay_IM-1" H 6400 1400 50  0001 C CNN
F 3 "" H 6400 1400 50  0001 C CNN
	1    6400 1400
	0    -1   -1   0   
$EndComp
$Comp
L D_Schottky D3
U 1 1 5A626DD4
P 6150 1650
F 0 "D3" H 6150 1750 50  0000 C CNN
F 1 "1n5819" H 6150 1550 50  0000 C CNN
F 2 "Diodes_THT:D_DO-41_SOD81_P10.16mm_Horizontal" H 6150 1650 50  0001 C CNN
F 3 "" H 6150 1650 50  0001 C CNN
	1    6150 1650
	0    1    1    0   
$EndComp
$Comp
L D D2
U 1 1 5A626E6F
P 5650 850
F 0 "D2" H 5650 950 50  0000 C CNN
F 1 "1n4007" H 5650 750 50  0000 C CNN
F 2 "Diodes_THT:D_DO-41_SOD81_P10.16mm_Horizontal" H 5650 850 50  0001 C CNN
F 3 "" H 5650 850 50  0001 C CNN
	1    5650 850 
	1    0    0    -1  
$EndComp
$Comp
L CP C2
U 1 1 5A626F27
P 6700 1650
F 0 "C2" H 6725 1750 50  0000 L CNN
F 1 "220uf" H 6725 1550 50  0000 L CNN
F 2 "Capacitors_THT:CP_Radial_D8.0mm_P3.50mm" H 6738 1500 50  0001 C CNN
F 3 "" H 6700 1650 50  0001 C CNN
	1    6700 1650
	1    0    0    -1  
$EndComp
$Comp
L R R1
U 1 1 5A62712B
P 7300 1650
F 0 "R1" V 7380 1650 50  0000 C CNN
F 1 "180" V 7250 1600 50  0000 C CNN
F 2 "Resistors_THT:R_Axial_DIN0204_L3.6mm_D1.6mm_P7.62mm_Horizontal" V 7230 1650 50  0001 C CNN
F 3 "" H 7300 1650 50  0001 C CNN
	1    7300 1650
	1    0    0    -1  
$EndComp
$Comp
L LED D4
U 1 1 5A6271DC
P 7000 1400
F 0 "D4" H 7000 1500 50  0000 C CNN
F 1 "LED" H 7000 1300 50  0000 C CNN
F 2 "LEDs:LED_D3.0mm" H 7000 1400 50  0001 C CNN
F 3 "" H 7000 1400 50  0001 C CNN
	1    7000 1400
	-1   0    0    1   
$EndComp
$Comp
L SW_Push SW1
U 1 1 5A6279E4
P 9300 950
F 0 "SW1" H 9350 1050 50  0000 L CNN
F 1 "SW_Push" H 9300 890 50  0000 C CNN
F 2 "Buttons_Switches_THT:SW_PUSH_6mm_h4.3mm" H 9300 1150 50  0001 C CNN
F 3 "" H 9300 1150 50  0001 C CNN
	1    9300 950 
	1    0    0    -1  
$EndComp
$Comp
L SW_Push SW2
U 1 1 5A627A2B
P 9300 1250
F 0 "SW2" H 9350 1350 50  0000 L CNN
F 1 "SW_Push" H 9300 1190 50  0000 C CNN
F 2 "Buttons_Switches_THT:SW_PUSH_6mm_h4.3mm" H 9300 1450 50  0001 C CNN
F 3 "" H 9300 1450 50  0001 C CNN
	1    9300 1250
	1    0    0    -1  
$EndComp
$Comp
L SW_Push SW3
U 1 1 5A627A74
P 9300 1500
F 0 "SW3" H 9350 1600 50  0000 L CNN
F 1 "SW_Push" H 9300 1440 50  0000 C CNN
F 2 "Buttons_Switches_THT:SW_PUSH_6mm_h4.3mm" H 9300 1700 50  0001 C CNN
F 3 "" H 9300 1700 50  0001 C CNN
	1    9300 1500
	1    0    0    -1  
$EndComp
$Comp
L SW_Push SW4
U 1 1 5A627AB3
P 9300 1750
F 0 "SW4" H 9350 1850 50  0000 L CNN
F 1 "SW_Push" H 9300 1690 50  0000 C CNN
F 2 "Buttons_Switches_THT:SW_PUSH_6mm_h4.3mm" H 9300 1950 50  0001 C CNN
F 3 "" H 9300 1950 50  0001 C CNN
	1    9300 1750
	1    0    0    -1  
$EndComp
Text GLabel 10000 950  2    60   Input ~ 0
B1
Text GLabel 10000 1250 2    60   Input ~ 0
B2
Text GLabel 10000 1500 2    60   Input ~ 0
B3
Text GLabel 10000 1750 2    60   Input ~ 0
B4
Text GLabel 5200 1900 0    60   Input ~ 0
GND
Text GLabel 8750 1400 0    60   Input ~ 0
GND
$Comp
L USB_A J2
U 1 1 5A628232
P 1700 3400
F 0 "J2" H 1500 3850 50  0000 L CNN
F 1 "USB_A" H 1500 3750 50  0000 L CNN
F 2 "Connectors:USB_A" H 1850 3350 50  0001 C CNN
F 3 "" H 1850 3350 50  0001 C CNN
	1    1700 3400
	1    0    0    -1  
$EndComp
Text GLabel 1700 4100 3    60   Input ~ 0
GND
$Comp
L R R2
U 1 1 5A628438
P 950 4100
F 0 "R2" V 1030 4100 50  0000 C CNN
F 1 "R" V 950 4100 50  0000 C CNN
F 2 "Resistors_THT:R_Axial_DIN0204_L3.6mm_D1.6mm_P7.62mm_Horizontal" V 880 4100 50  0001 C CNN
F 3 "" H 950 4100 50  0001 C CNN
	1    950  4100
	1    0    0    -1  
$EndComp
$Comp
L C C3
U 1 1 5A62847B
P 1200 4100
F 0 "C3" H 1225 4200 50  0000 L CNN
F 1 "C" H 1225 4000 50  0000 L CNN
F 2 "Capacitors_THT:C_Disc_D3.0mm_W1.6mm_P2.50mm" H 1238 3950 50  0001 C CNN
F 3 "" H 1200 4100 50  0001 C CNN
	1    1200 4100
	1    0    0    -1  
$EndComp
Text GLabel 850  4500 0    60   Input ~ 0
GND
$Comp
L R R3
U 1 1 5A628615
P 2550 3200
F 0 "R3" V 2630 3200 50  0000 C CNN
F 1 "1K5" V 2550 3200 50  0000 C CNN
F 2 "Resistors_THT:R_Axial_DIN0204_L3.6mm_D1.6mm_P7.62mm_Horizontal" V 2480 3200 50  0001 C CNN
F 3 "" H 2550 3200 50  0001 C CNN
	1    2550 3200
	1    0    0    -1  
$EndComp
Text GLabel 2350 2950 0    60   Input ~ 0
5V
Text GLabel 2900 3400 2    60   Input ~ 0
USB+
Text GLabel 2900 3600 2    60   Input ~ 0
USB-
$Comp
L Conn_01x03_Female J3
U 1 1 5A628AF1
P 1950 5550
F 0 "J3" H 1950 5750 50  0000 C CNN
F 1 "Conn_01x03_Female" H 1950 5350 50  0000 C CNN
F 2 "Socket_Strips:Socket_Strip_Straight_1x03_Pitch2.54mm" H 1950 5550 50  0001 C CNN
F 3 "" H 1950 5550 50  0001 C CNN
	1    1950 5550
	1    0    0    -1  
$EndComp
Text GLabel 1250 5700 0    60   Input ~ 0
AD
Text GLabel 1400 5450 0    60   Input ~ 0
GND
Text GLabel 1350 5600 0    60   Input ~ 0
3.3V
$Comp
L Conn_01x16_Female J4
U 1 1 5A62915A
P 10850 3250
F 0 "J4" H 10850 4050 50  0000 C CNN
F 1 "Conn_01x16_Female" H 10850 2350 50  0000 C CNN
F 2 "Socket_Strips:Socket_Strip_Straight_1x16_Pitch2.54mm" H 10850 3250 50  0001 C CNN
F 3 "" H 10850 3250 50  0001 C CNN
	1    10850 3250
	1    0    0    -1  
$EndComp
Text GLabel 10250 2550 0    60   Input ~ 0
GND
Text GLabel 10200 2700 0    60   Input ~ 0
5V
$Comp
L POT_TRIM RV1
U 1 1 5A62970E
P 9600 2850
F 0 "RV1" V 9425 2850 50  0000 C CNN
F 1 "POT_TRIM" V 9500 2850 50  0000 C CNN
F 2 "Potentiometers:Potentiometer_Trimmer_Bourns_3296W" H 9600 2850 50  0001 C CNN
F 3 "" H 9600 2850 50  0001 C CNN
	1    9600 2850
	1    0    0    -1  
$EndComp
Text GLabel 9400 2500 0    60   Input ~ 0
5V
Text GLabel 9300 3050 0    60   Input ~ 0
GND
Text GLabel 9900 2900 0    60   Input ~ 0
RS
Text GLabel 9900 3050 0    60   Input ~ 0
GND
Text GLabel 9800 3150 0    60   Input ~ 0
EN
NoConn ~ 10650 3150
NoConn ~ 10650 3250
NoConn ~ 10650 3350
NoConn ~ 10650 3450
Text GLabel 10250 3550 0    60   Input ~ 0
D4
Text GLabel 10200 3650 0    60   Input ~ 0
D5
Text GLabel 10100 3750 0    60   Input ~ 0
D6
Text GLabel 10050 3850 0    60   Input ~ 0
D7
Text GLabel 10300 3950 0    60   Input ~ 0
5V
Text GLabel 10250 4100 0    60   Input ~ 0
GND
Text GLabel 4200 7450 0    60   Input ~ 0
GND
Text GLabel 3700 4500 0    60   Input ~ 0
B1
Text GLabel 3800 4400 0    60   Input ~ 0
B2
Text GLabel 4000 4300 0    60   Input ~ 0
B3
Text GLabel 4150 4200 0    60   Input ~ 0
B4
Text GLabel 4100 3200 0    60   Input ~ 0
AD
Text GLabel 3950 5300 0    60   Input ~ 0
USB-
Text GLabel 4350 5200 0    60   Input ~ 0
USB+
Text GLabel 4050 4900 0    60   Input ~ 0
D4
Text GLabel 4050 2900 0    60   Input ~ 0
D5
Text GLabel 4300 2800 0    60   Input ~ 0
D6
Text GLabel 6550 2600 2    60   Input ~ 0
D7
Text GLabel 3850 4800 0    60   Input ~ 0
EN
Text GLabel 3600 4700 0    60   Input ~ 0
RS
NoConn ~ 2000 3200
Text GLabel 7300 1200 2    60   Input ~ 0
5V
$Comp
L LPC1769FBD100 U2
U 1 1 5A8B755D
P 5400 4800
F 0 "U2" H 4700 7250 50  0000 C CNN
F 1 "LPC1769FBD100" H 6200 7250 50  0000 C CNN
F 2 "Package_QFP:LQFP-100_14x14mm_P0.5mm" H 6700 7350 50  0001 C CNN
F 3 "" H 5400 4700 50  0001 C CNN
	1    5400 4800
	1    0    0    -1  
$EndComp
$Comp
L LM1117-3.3 U3
U 1 1 5A8B9DA0
P 7900 2250
F 0 "U3" H 7750 2375 50  0000 C CNN
F 1 "LM1117-3.3" H 7900 2375 50  0000 L CNN
F 2 "TO_SOT_Packages_THT:TO-220-3_Vertical" H 7900 2250 50  0001 C CNN
F 3 "" H 7900 2250 50  0001 C CNN
	1    7900 2250
	1    0    0    -1  
$EndComp
Text GLabel 7400 2250 0    60   Input ~ 0
5V
Text GLabel 7850 2850 0    60   Input ~ 0
GND
Text GLabel 8400 2250 2    60   Input ~ 0
3.3V
Text GLabel 4650 2150 0    60   Input ~ 0
3.3V
$Comp
L Crystal Y1
U 1 1 5A8C3FEF
P 3550 6350
F 0 "Y1" H 3550 6500 50  0000 C CNN
F 1 "32.768 KHZ" H 3550 6200 50  0000 C CNN
F 2 "Crystals:Crystal_AT310_d3.0mm_l10.0mm_Vertical" H 3550 6350 50  0001 C CNN
F 3 "" H 3550 6350 50  0001 C CNN
	1    3550 6350
	0    1    1    0   
$EndComp
$Comp
L Crystal Y2
U 1 1 5A8C40B4
P 3600 6950
F 0 "Y2" H 3600 7100 50  0000 C CNN
F 1 "12 MHZ" H 3600 6800 50  0000 C CNN
F 2 "Crystals:Crystal_AT310_d3.0mm_l10.0mm_Vertical" H 3600 6950 50  0001 C CNN
F 3 "" H 3600 6950 50  0001 C CNN
	1    3600 6950
	0    -1   -1   0   
$EndComp
$Comp
L C C4
U 1 1 5A8C412B
P 2950 6100
F 0 "C4" H 2975 6200 50  0000 L CNN
F 1 "10pF" H 2975 6000 50  0000 L CNN
F 2 "Capacitors_THT:C_Disc_D3.0mm_W1.6mm_P2.50mm" H 2988 5950 50  0001 C CNN
F 3 "" H 2950 6100 50  0001 C CNN
	1    2950 6100
	0    1    1    0   
$EndComp
$Comp
L C C5
U 1 1 5A8C4196
P 2950 6500
F 0 "C5" H 2975 6600 50  0000 L CNN
F 1 "10pF" H 2975 6400 50  0000 L CNN
F 2 "Capacitors_THT:C_Disc_D3.0mm_W1.6mm_P2.50mm" H 2988 6350 50  0001 C CNN
F 3 "" H 2950 6500 50  0001 C CNN
	1    2950 6500
	0    1    1    0   
$EndComp
$Comp
L C C6
U 1 1 5A8C423E
P 3050 6750
F 0 "C6" H 3075 6850 50  0000 L CNN
F 1 "18pF" H 3075 6650 50  0000 L CNN
F 2 "Capacitors_THT:C_Disc_D3.0mm_W1.6mm_P2.50mm" H 3088 6600 50  0001 C CNN
F 3 "" H 3050 6750 50  0001 C CNN
	1    3050 6750
	0    1    1    0   
$EndComp
$Comp
L C C7
U 1 1 5A8C4341
P 3100 7100
F 0 "C7" H 3125 7200 50  0000 L CNN
F 1 "18pF" H 3125 7000 50  0000 L CNN
F 2 "Capacitors_THT:C_Disc_D3.0mm_W1.6mm_P2.50mm" H 3138 6950 50  0001 C CNN
F 3 "" H 3100 7100 50  0001 C CNN
	1    3100 7100
	0    1    1    0   
$EndComp
Wire Wire Line
	3850 1200 4300 1200
Wire Wire Line
	4300 1200 4700 1200
Wire Wire Line
	4700 1200 5100 1200
Wire Wire Line
	4300 1200 4300 1250
Wire Wire Line
	3850 1200 3850 1100
Wire Wire Line
	3850 1100 3200 1100
Connection ~ 4300 1200
Wire Wire Line
	3200 1200 3550 1200
Wire Wire Line
	3550 1200 3550 1600
Wire Wire Line
	3550 1600 4300 1600
Wire Wire Line
	4300 1600 4700 1600
Wire Wire Line
	4700 1600 5100 1600
Wire Wire Line
	5100 1600 5600 1600
Wire Wire Line
	4300 1600 4300 1550
Wire Wire Line
	5100 1600 5100 1400
Connection ~ 4300 1600
Connection ~ 5100 1600
Wire Wire Line
	4700 850  4700 1200
Wire Wire Line
	4700 1200 4700 1250
Connection ~ 4700 1200
Wire Wire Line
	4700 1550 4700 1600
Connection ~ 4700 1600
Wire Wire Line
	6100 1400 6150 1400
Wire Wire Line
	6150 1400 6250 1400
Wire Wire Line
	6100 1200 6700 1200
Wire Wire Line
	6700 1200 7300 1200
Wire Wire Line
	6700 850  6700 1200
Wire Wire Line
	6700 1200 6700 1400
Wire Wire Line
	6700 1400 6700 1500
Wire Wire Line
	7150 1400 7300 1400
Wire Wire Line
	6150 1500 6150 1400
Connection ~ 6150 1400
Wire Wire Line
	5600 1600 5600 1900
Wire Wire Line
	5200 1900 5600 1900
Wire Wire Line
	5600 1900 6150 1900
Wire Wire Line
	6150 1900 6700 1900
Wire Wire Line
	6700 1900 7300 1900
Wire Wire Line
	6150 1900 6150 1800
Wire Wire Line
	5500 850  4700 850 
Wire Wire Line
	5800 850  6700 850 
Connection ~ 6700 1200
Connection ~ 6700 1400
Wire Wire Line
	6700 1900 6700 1800
Connection ~ 6150 1900
Wire Wire Line
	7300 1400 7300 1500
Wire Wire Line
	7300 1900 7300 1800
Connection ~ 6700 1900
Wire Wire Line
	6550 1400 6700 1400
Wire Wire Line
	6700 1400 6850 1400
Wire Wire Line
	9100 950  9000 950 
Wire Wire Line
	9000 950  9000 1250
Wire Wire Line
	9000 1250 9000 1400
Wire Wire Line
	9000 1400 9000 1500
Wire Wire Line
	9000 1500 9000 1750
Wire Wire Line
	9000 1250 9100 1250
Wire Wire Line
	9000 1500 9100 1500
Connection ~ 9000 1250
Wire Wire Line
	9000 1750 9100 1750
Connection ~ 9000 1500
Wire Wire Line
	10000 1750 9500 1750
Wire Wire Line
	9500 1500 10000 1500
Wire Wire Line
	10000 1250 9500 1250
Wire Wire Line
	10000 950  9500 950 
Connection ~ 5600 1900
Wire Wire Line
	8750 1400 9000 1400
Connection ~ 9000 1400
Wire Wire Line
	1700 4100 1700 3800
Wire Wire Line
	950  3950 950  3800
Wire Wire Line
	950  3800 1200 3800
Wire Wire Line
	1200 3800 1200 3850
Wire Wire Line
	1200 3850 1200 3950
Wire Wire Line
	1200 4350 1200 4250
Wire Wire Line
	950  4350 1050 4350
Wire Wire Line
	1050 4350 1200 4350
Wire Wire Line
	950  4350 950  4250
Wire Wire Line
	1200 3850 1600 3850
Wire Wire Line
	1600 3850 1600 3800
Connection ~ 1200 3850
Connection ~ 1050 4350
Wire Wire Line
	2550 3350 2550 3400
Wire Wire Line
	2000 3400 2550 3400
Wire Wire Line
	2550 3400 2900 3400
Wire Wire Line
	2350 2950 2550 2950
Wire Wire Line
	2550 2950 2550 3050
Wire Wire Line
	2900 3600 2200 3600
Wire Wire Line
	2200 3600 2200 3500
Wire Wire Line
	2200 3500 2000 3500
Connection ~ 2550 3400
Wire Wire Line
	1250 5700 1650 5700
Wire Wire Line
	1650 5700 1650 5650
Wire Wire Line
	1650 5650 1750 5650
Wire Wire Line
	1350 5600 1500 5600
Wire Wire Line
	1500 5600 1500 5550
Wire Wire Line
	1500 5550 1750 5550
Wire Wire Line
	1400 5450 1750 5450
Wire Wire Line
	10250 2550 10650 2550
Wire Wire Line
	10200 2700 10300 2700
Wire Wire Line
	10300 2700 10300 2650
Wire Wire Line
	10300 2650 10650 2650
Wire Wire Line
	9750 2850 10300 2850
Wire Wire Line
	10300 2850 10300 2750
Wire Wire Line
	10300 2750 10650 2750
Wire Wire Line
	9400 2500 9600 2500
Wire Wire Line
	9600 2500 9600 2700
Wire Wire Line
	9300 3050 9600 3050
Wire Wire Line
	9600 3050 9600 3000
Wire Wire Line
	9900 2900 10350 2900
Wire Wire Line
	10350 2900 10350 2850
Wire Wire Line
	10350 2850 10650 2850
Wire Wire Line
	9900 3050 10350 3050
Wire Wire Line
	10350 3050 10350 2950
Wire Wire Line
	10350 2950 10650 2950
Wire Wire Line
	9800 3150 10400 3150
Wire Wire Line
	10400 3150 10400 3050
Wire Wire Line
	10400 3050 10650 3050
Wire Wire Line
	10250 3550 10650 3550
Wire Wire Line
	10200 3650 10650 3650
Wire Wire Line
	10100 3750 10650 3750
Wire Wire Line
	10050 3850 10650 3850
Wire Wire Line
	10300 3950 10650 3950
Wire Wire Line
	10250 4100 10450 4100
Wire Wire Line
	10450 4100 10450 4050
Wire Wire Line
	10450 4050 10650 4050
Wire Wire Line
	4350 5200 4500 5200
Wire Wire Line
	3950 5300 4500 5300
Wire Wire Line
	7400 2250 7450 2250
Wire Wire Line
	7450 2250 7550 2250
Wire Wire Line
	7550 2250 7600 2250
Wire Wire Line
	7900 2550 7900 2700
Wire Wire Line
	7900 2700 7900 2850
Wire Wire Line
	8200 2250 8250 2250
Wire Wire Line
	8250 2250 8300 2250
Wire Wire Line
	8300 2250 8400 2250
Wire Wire Line
	850  4500 1050 4500
Wire Wire Line
	1050 4500 1050 4350
Wire Wire Line
	4200 7450 5000 7450
Wire Wire Line
	5000 7450 5100 7450
Wire Wire Line
	5100 7450 5200 7450
Wire Wire Line
	5200 7450 5300 7450
Wire Wire Line
	5300 7450 5400 7450
Wire Wire Line
	5400 7450 5500 7450
Wire Wire Line
	5500 7450 5650 7450
Wire Wire Line
	5650 7450 5700 7450
Wire Wire Line
	5700 7450 5700 7300
Wire Wire Line
	5600 7300 5600 7450
Wire Wire Line
	5600 7450 5650 7450
Connection ~ 5650 7450
Wire Wire Line
	5500 7300 5500 7450
Connection ~ 5500 7450
Wire Wire Line
	5400 7300 5400 7450
Connection ~ 5400 7450
Wire Wire Line
	5300 7300 5300 7450
Connection ~ 5300 7450
Wire Wire Line
	5200 7300 5200 7450
Connection ~ 5200 7450
Wire Wire Line
	5100 7300 5100 7450
Connection ~ 5100 7450
Wire Wire Line
	5000 7300 5000 7450
Connection ~ 5000 7450
Wire Wire Line
	5000 2150 5000 2300
Wire Wire Line
	5100 2150 5100 2300
Connection ~ 5000 2150
Wire Wire Line
	5200 2150 5200 2300
Connection ~ 5100 2150
Wire Wire Line
	5300 2150 5300 2300
Connection ~ 5200 2150
Wire Wire Line
	5400 2150 5400 2300
Connection ~ 5300 2150
Wire Wire Line
	5500 2150 5500 2300
Connection ~ 5400 2150
Connection ~ 5500 2150
Wire Wire Line
	5700 2150 5700 2300
Connection ~ 5600 2150
Connection ~ 5700 2150
Wire Wire Line
	3600 6800 3600 6750
Wire Wire Line
	3200 6750 3600 6750
Wire Wire Line
	3600 6750 3850 6750
Wire Wire Line
	3250 7100 3600 7100
Wire Wire Line
	3600 7100 4200 7100
Wire Wire Line
	3850 6750 3850 6700
Wire Wire Line
	3850 6700 4500 6700
Connection ~ 3600 6750
Wire Wire Line
	4500 6800 4200 6800
Wire Wire Line
	4200 6800 4200 7100
Connection ~ 3600 7100
Wire Wire Line
	3100 6100 3550 6100
Wire Wire Line
	3550 6100 4300 6100
Wire Wire Line
	3550 6100 3550 6200
Wire Wire Line
	3550 6500 3100 6500
Wire Wire Line
	4300 6100 4300 6500
Wire Wire Line
	4300 6500 4500 6500
Connection ~ 3550 6100
Wire Wire Line
	4500 6600 3550 6600
Wire Wire Line
	3550 6600 3550 6500
Wire Wire Line
	2550 6500 2700 6500
Wire Wire Line
	2700 6500 2800 6500
Wire Wire Line
	2550 6500 2550 6100
Wire Wire Line
	2550 6100 2800 6100
Wire Wire Line
	2900 6750 2650 6750
Wire Wire Line
	2650 6500 2650 6750
Wire Wire Line
	2650 6750 2650 6800
Wire Wire Line
	2650 6800 2650 7100
Wire Wire Line
	2650 7100 2950 7100
Text GLabel 2350 6800 0    60   Input ~ 0
GND
Wire Wire Line
	2350 6800 2650 6800
Connection ~ 2650 6800
Wire Wire Line
	2650 6500 2700 6500
Connection ~ 2700 6500
Connection ~ 2650 6750
Wire Wire Line
	7900 2850 7850 2850
Wire Wire Line
	4650 2150 5000 2150
Wire Wire Line
	5000 2150 5100 2150
Wire Wire Line
	5100 2150 5200 2150
Wire Wire Line
	5200 2150 5300 2150
Wire Wire Line
	5300 2150 5400 2150
Wire Wire Line
	5400 2150 5500 2150
Wire Wire Line
	5500 2150 5600 2150
Wire Wire Line
	5600 2150 5700 2150
Wire Wire Line
	5700 2150 5800 2150
Wire Wire Line
	5800 2150 5800 2300
Wire Wire Line
	5600 2150 5600 2300
NoConn ~ 6300 2700
NoConn ~ 6300 2800
NoConn ~ 6300 2900
NoConn ~ 6300 3000
NoConn ~ 6300 3100
NoConn ~ 6300 3200
NoConn ~ 6300 3300
NoConn ~ 6300 3400
NoConn ~ 6300 3500
NoConn ~ 6300 3600
NoConn ~ 6300 3700
NoConn ~ 6300 3800
NoConn ~ 6300 3900
NoConn ~ 6300 4000
NoConn ~ 6300 4100
NoConn ~ 6300 4200
NoConn ~ 6300 4300
NoConn ~ 6300 4400
NoConn ~ 6300 4500
NoConn ~ 6300 4600
NoConn ~ 6300 4700
NoConn ~ 6300 4800
NoConn ~ 6300 4900
NoConn ~ 6300 5100
NoConn ~ 6300 5200
NoConn ~ 6300 5900
NoConn ~ 6300 6000
NoConn ~ 6300 6100
NoConn ~ 6300 6200
NoConn ~ 6300 6300
NoConn ~ 6300 6400
NoConn ~ 6300 6600
NoConn ~ 6300 6700
NoConn ~ 6300 6900
NoConn ~ 6300 7000
NoConn ~ 4500 6200
NoConn ~ 4500 6300
NoConn ~ 4500 6000
NoConn ~ 4500 5900
NoConn ~ 4500 5800
NoConn ~ 4500 5700
NoConn ~ 4500 5600
NoConn ~ 4500 5500
NoConn ~ 4500 5100
NoConn ~ 4500 5000
NoConn ~ 4500 4100
NoConn ~ 4500 4000
NoConn ~ 4500 3900
NoConn ~ 4500 3800
NoConn ~ 4500 3700
NoConn ~ 4500 3600
NoConn ~ 4500 2600
NoConn ~ 4500 2700
NoConn ~ 4500 3000
NoConn ~ 4500 3100
Wire Wire Line
	4500 4200 4150 4200
Wire Wire Line
	4500 4300 4000 4300
Wire Wire Line
	4500 4400 3800 4400
Wire Wire Line
	4500 4500 3700 4500
NoConn ~ 4500 3500
NoConn ~ 4500 3400
NoConn ~ 4500 3300
Wire Wire Line
	4500 4700 3600 4700
Wire Wire Line
	3850 4800 4500 4800
Wire Wire Line
	4500 4900 4050 4900
NoConn ~ 6300 5300
NoConn ~ 6300 5400
NoConn ~ 6300 5500
Wire Wire Line
	4050 2900 4500 2900
Wire Wire Line
	4300 2800 4500 2800
NoConn ~ 6300 5700
NoConn ~ 6300 5600
Wire Wire Line
	6550 2600 6300 2600
NoConn ~ 6300 5800
Wire Wire Line
	4100 3200 4500 3200
NoConn ~ 4500 4600
$EndSCHEMATC
